<?xml version="1.0" encoding="UTF-8"?>
<!DOCTYPE svg PUBLIC "-//W3C//DTD SVG 1.1//EN" "http://www.w3.org/Graphics/SVG/1.1/DTD/svg11.dtd">
<!-- Creator: CorelDRAW X7 -->
<svg xmlns="http://www.w3.org/2000/svg" xml:space="preserve" width="50mm" height="50mm" version="1.1" style="shape-rendering:geometricPrecision; text-rendering:geometricPrecision; image-rendering:optimizeQuality; fill-rule:evenodd; clip-rule:evenodd"
viewBox="0 0 5000 5000"
 xmlns:xlink="http://www.w3.org/1999/xlink">
 <defs>
  <style type="text/css">
   <![CDATA[
    .fil0 {fill:#DBA561}
   ]]>
  </style>
 </defs>
 <g id="Слой_x0020_1">
  <metadata id="CorelCorpID_0Corel-Layer"/>
  <g id="_2572706924624">
   <path class="fil0" d="M2703 4359c46,7 78,6 123,1 90,-13 173,-60 235,-101 26,-17 133,-83 144,-111 19,-50 -19,-95 -67,-89 -65,8 -220,206 -419,174 -86,-14 -182,-49 -266,-73l-537 -150c-187,-51 -100,-39 -304,-41l6 -521c102,-9 113,7 213,-30 60,-22 126,-44 196,-53 307,-37 435,201 518,228 90,29 400,-16 475,32 49,32 65,121 9,170 -49,42 -146,26 -216,25l-377 -4c-45,-1 -78,-4 -97,30 -21,35 -5,74 20,88 34,19 313,13 362,13 150,2 328,34 418,-80 47,-62 54,-109 51,-201 22,-16 431,-217 477,-240 154,-79 208,36 181,105 -13,34 -30,47 -56,64l-212 149c-67,56 -1,138 66,108 17,-9 54,-37 71,-49 41,-29 184,-123 208,-153 124,-157 40,-335 -115,-375 -112,-28 -243,56 -358,115l-320 160c-39,-18 -54,-63 -164,-72 -110,-9 -248,0 -358,-5 -41,-2 -46,-26 -72,-47 -12,-10 -20,-18 -33,-28 -218,-174 -399,-209 -681,-114 -95,33 -92,36 -206,34 -16,-3 -10,-16 -31,-45 -36,-51 -87,-72 -153,-73 -65,-2 -243,-10 -292,6 -79,25 -119,87 -120,185l-7 608c-3,251 196,211 402,213 162,1 167,-111 192,-115 39,0 131,-3 162,5 176,46 828,241 932,257zm662 -461c-86,21 -47,149 37,121 68,-22 44,-140 -37,-121zm-2190 -568c-34,18 -25,69 -26,113l-6 547c0,44 -6,85 45,91 33,3 252,6 270,-2 34,-16 25,-67 26,-110l6 -548c1,-44 6,-86 -43,-93 -32,-4 -255,-6 -272,2z"/>
   <path class="fil0" d="M2384 650c-96,24 -118,117 -118,202 -112,25 -187,79 -238,95 -52,-47 -109,-102 -209,-65 -53,19 -269,237 -289,289 -38,101 25,165 65,209 -6,24 -40,86 -54,116 -13,33 -31,101 -46,122 -96,0 -138,21 -178,76 -42,59 -31,148 -31,229 0,155 -19,306 214,306 24,105 89,209 96,245 -51,35 -98,106 -68,197 20,60 98,123 134,160 91,90 203,244 366,70 34,7 79,37 115,52 40,17 86,28 123,46 0,232 163,210 305,210 144,0 307,24 307,-213 89,-18 162,-67 236,-95 36,25 91,104 206,67 62,-20 273,-230 296,-296 39,-117 -46,-175 -67,-206 28,-73 78,-148 95,-237 49,-1 77,3 119,-19 24,-12 64,-44 71,-70l15 -26c1,-115 2,-233 1,-348 -2,-115 -105,-145 -202,-148 -17,-35 -31,-87 -46,-124 -14,-35 -44,-84 -53,-115 42,-46 100,-96 68,-201 -20,-66 -235,-273 -285,-294 -97,-39 -173,11 -210,64 -39,-9 -138,-72 -244,-97 0,-60 -6,-107 -36,-146 -23,-31 -67,-60 -115,-65 -48,-5 -319,-8 -343,10zm66 2405l242 0c32,0 32,0 33,-34l0 -501c0,-144 5,-114 113,-167 191,-96 322,-338 270,-569 -26,-115 -75,-203 -152,-277 -16,-15 -60,-53 -85,-63 5,119 1,288 1,413 0,160 -148,317 -313,306 -166,-10 -288,-155 -288,-331 0,-123 -3,-268 2,-389 -108,54 -204,200 -233,328 -54,237 52,455 257,576 97,58 123,16 123,167l0 501c0,32 -4,40 30,40zm-573 -2031c-17,8 -196,186 -205,205 16,52 106,77 97,151 -3,24 -31,65 -42,85 -114,201 -52,306 -193,307 -122,1 -94,-53 -94,271 0,18 0,13 5,28 80,21 156,-23 185,56 23,62 33,120 60,182 15,35 77,138 79,163 5,66 -74,98 -97,144 8,21 181,194 205,208 61,-17 84,-136 185,-84 61,31 125,77 204,94l0 -333c-108,-30 -252,-178 -311,-288 -313,-582 353,-1157 461,-853 18,51 9,89 9,141l0 331c0,232 295,233 295,-6l-3 -392c0,-100 54,-181 166,-155 64,16 165,99 195,130 225,236 264,601 69,873 -29,40 -83,100 -120,128 -25,18 -46,35 -73,53 -103,65 -77,-32 -77,372 81,-22 137,-58 204,-95 93,-52 129,61 183,84 27,-10 83,-72 107,-95 25,-25 90,-81 101,-113 -21,-48 -106,-79 -97,-149 4,-23 67,-128 84,-169 65,-158 28,-222 161,-221 104,0 85,39 85,-269 0,-53 -39,-36 -91,-36 -131,-1 -94,-84 -156,-224 -15,-36 -80,-147 -83,-170 -9,-70 83,-105 98,-149 -12,-24 -183,-196 -209,-206 -92,56 -71,151 -226,59 -105,-62 -170,-64 -262,-100 -80,-32 -35,-104 -56,-185 -62,-12 -201,-5 -271,-5 -41,0 -28,15 -29,94 -1,99 -51,95 -129,118 -115,33 -240,112 -258,116 -78,15 -104,-83 -156,-96z"/>
  </g>
 </g>
</svg>
