<?xml version="1.0" encoding="UTF-8"?>
<!DOCTYPE svg PUBLIC "-//W3C//DTD SVG 1.1//EN" "http://www.w3.org/Graphics/SVG/1.1/DTD/svg11.dtd">
<!-- Creator: CorelDRAW X7 -->
<svg xmlns="http://www.w3.org/2000/svg" xml:space="preserve" width="50mm" height="50mm" version="1.1" style="shape-rendering:geometricPrecision; text-rendering:geometricPrecision; image-rendering:optimizeQuality; fill-rule:evenodd; clip-rule:evenodd"
viewBox="0 0 5000 5000"
 xmlns:xlink="http://www.w3.org/1999/xlink">
 <defs>
  <style type="text/css">
   <![CDATA[
    .fil0 {fill:#DBA561}
   ]]>
  </style>
 </defs>
 <g id="Слой_x0020_1">
  <metadata id="CorelCorpID_0Corel-Layer"/>
  <g id="_2572871481552">
   <path class="fil0" d="M2501 1170l83 0c189,0 159,8 159,-173 0,-43 6,-86 -17,-125 -11,-19 -24,-31 -41,-44 -54,-42 -114,-51 -184,-54 -70,3 -131,12 -185,54 -16,13 -29,25 -41,44 -23,39 -16,82 -16,125 0,181 -31,173 158,173l84 0zm0 -280c62,2 122,31 123,88 1,54 0,65 0,119l-123 0 -123 0c0,-54 -1,-65 0,-119 1,-57 61,-86 123,-88z"/>
   <path class="fil0" d="M1664 3006l260 0c53,0 97,-35 97,-79l0 -926c0,-43 -44,-78 -97,-78l-260 0c-53,0 -97,35 -97,78l0 926c0,44 44,79 97,79zm-942 -1317l0 0c1,-47 2,-79 3,-89 17,-141 119,-219 246,-244 0,-6 1,-16 1,-29l4 0 0 -139c0,-75 62,-137 137,-137l2774 0c75,0 137,62 137,137l0 139 5 0c1,13 1,23 2,29 126,25 229,103 245,244 7,55 6,680 5,1101l-1 0 0 378 0 119 -256 0c0,75 -62,137 -137,137l-1204 0 525 750c20,28 13,68 -16,88l0 0c-28,20 -68,13 -88,-16l-530 -757 0 763c0,34 -29,63 -63,63l0 0c-35,0 -64,-29 -64,-63l0 -763 -530 757c-20,29 -60,36 -88,16l0 0c-29,-20 -36,-60 -16,-88l525 -750 -1225 0c-75,0 -137,-62 -137,-137l-255 0 0 -119 1 0c0,-17 -1,-125 -1,-276l0 -102 -1 0c0,-83 0,-173 0,-265l2 0 0 -257c0,-32 27,-59 59,-59l0 0c33,0 59,27 59,59l0 257 1 0 0 640 131 3 0 -430 0 -213 0 -15c0,-32 26,-59 59,-59l0 0c32,0 59,27 59,59l0 15 5 0 0 657c0,68 56,123 123,123l2564 0c67,0 122,-55 122,-123l0 -1800c0,-68 -55,-123 -122,-123l-2564 0c-67,0 -123,55 -123,123 0,253 -5,492 -5,743 0,33 -27,59 -59,59l0 0c-33,0 -59,-26 -59,-59l0 -301 0 -27 0 -230c-51,5 -101,54 -117,93 -13,31 -15,75 -15,118l0 0 0 46 0 17 0 0 0 0 0 38c0,32 -26,59 -59,59l0 0c-32,0 -59,-27 -59,-59l0 -38 0 -2 0 -15 -1 0 1 -45 0 -1zm1680 1317l259 0c53,0 97,-46 97,-102l0 -1201c0,-56 -44,-102 -97,-102l-259 0c-54,0 -97,46 -97,102l0 1201c0,56 43,102 97,102zm761 0l259 0c54,0 97,-54 97,-120l0 -1411c0,-66 -43,-120 -97,-120l-259 0c-53,0 -97,54 -97,120l0 1411c0,66 44,120 97,120zm998 70l-131 3 0 -1601c50,5 101,54 117,93 21,52 14,141 14,204l0 1301zm-951 -147l165 0c34,0 62,-34 62,-76l0 -1338c0,-42 -28,-76 -62,-76l-165 0c-34,0 -61,34 -61,76l0 1338c0,42 27,76 61,76zm-761 -4l165 0c34,0 61,-29 61,-65l0 -1119c0,-35 -27,-65 -61,-65l-165 0c-34,0 -62,30 -62,65l0 1119c0,36 28,65 62,65zm-737 2l164 0c34,0 62,-22 62,-50l0 -826c0,-27 -28,-50 -62,-50l-164 0c-34,0 -62,23 -62,50l0 826c0,28 28,50 62,50z"/>
   <circle class="fil0" cx="1032" cy="2227" r="60"/>
   <circle class="fil0" cx="778" cy="1985" r="60"/>
  </g>
 </g>
</svg>
