<?xml version="1.0" encoding="UTF-8"?>
<!DOCTYPE svg PUBLIC "-//W3C//DTD SVG 1.1//EN" "http://www.w3.org/Graphics/SVG/1.1/DTD/svg11.dtd">
<!-- Creator: CorelDRAW X7 -->
<svg xmlns="http://www.w3.org/2000/svg" xml:space="preserve" width="50mm" height="50mm" version="1.1" style="shape-rendering:geometricPrecision; text-rendering:geometricPrecision; image-rendering:optimizeQuality; fill-rule:evenodd; clip-rule:evenodd"
viewBox="0 0 5000 5000"
 xmlns:xlink="http://www.w3.org/1999/xlink">
 <defs>
  <style type="text/css">
   <![CDATA[
    .fil0 {fill:#DBA561}
   ]]>
  </style>
 </defs>
 <g id="Слой_x0020_1">
  <metadata id="CorelCorpID_0Corel-Layer"/>
  <g id="_2572871522800">
   <path class="fil0" d="M1451 3600c-84,7 -237,-14 -285,153 -16,55 -9,150 -9,214 0,74 -17,157 37,187 40,21 1028,16 1596,13l249 0c27,0 50,-23 50,-50l0 0c0,-27 -23,-50 -50,-50l-238 0 -57 0 -1334 0 -91 0c-18,0 -33,-15 -33,-33l0 -91 0 -23 0 -89c0,-69 56,-125 124,-125l2159 0c68,0 124,56 124,125l0 89 0 23 0 91c0,18 -15,33 -33,33l-91 0 -83 0 -3 0 -97 0c-29,0 -53,24 -53,53l0 0c0,28 24,52 53,52l100 0c5,0 10,0 14,-2 353,9 322,9 322,-192 0,-143 26,-268 -101,-346 -65,-39 -116,-25 -194,-31 -6,-81 -33,-203 -49,-285l-153 -864c-89,-571 -395,-532 -835,-531 -451,1 -736,-40 -832,521 -67,388 -143,776 -207,1158zm1031 -1537c-203,5 -392,-31 -530,75 -128,98 -137,232 -169,427l-137 771c-13,72 -42,191 -42,265l503 2 1269 1c3,-71 -160,-956 -177,-1036 -40,-200 -33,-339 -174,-438 -138,-96 -341,-68 -543,-67z"/>
   <rect class="fil0" x="3667" y="2786" width="754" height="138" rx="69" ry="69"/>
   <rect class="fil0" x="580" y="2786" width="754" height="138" rx="69" ry="69"/>
   <rect class="fil0" transform="matrix(1.56055E-014 -0.589232 0.589232 1.56055E-014 2420.45 1580.57)" width="1279" height="234" rx="117" ry="117"/>
   <rect class="fil0" transform="matrix(0.41665 -0.41665 0.41665 0.41665 3451.52 1799.34)" width="1279" height="234" rx="117" ry="117"/>
   <rect class="fil0" transform="matrix(-0.41665 -0.41665 -0.41665 0.41665 1435.45 1799.34)" width="1279" height="234" rx="117" ry="117"/>
   <path class="fil0" d="M3124 3347l-220 -1078c-7,-37 -44,-61 -81,-53l0 0c-37,8 -61,44 -54,81l220 1079c8,37 45,61 82,53l0 0c37,-8 61,-44 53,-82z"/>
   <circle class="fil0" cx="3206" cy="4117" r="50"/>
  </g>
 </g>
</svg>
