<svg xmlns="http://www.w3.org/2000/svg" viewBox="0 0 22 18">
    <defs>
        <style>.cls-1{fill:none;stroke:#fff;stroke-linecap:round;stroke-linejoin:round;stroke-width:2px;}</style>
    </defs>
    <title>E-mail</title>
    <g id="Layer_2" data-name="Layer 2">
        <g id="Layer_1-2" data-name="Layer 1">
            <path class="cls-1" d="M3,1H19a2,2,0,0,1,2,2V15a2,2,0,0,1-2,2H3a2,2,0,0,1-2-2V3A2,2,0,0,1,3,1Z"/>
            <polyline class="cls-1" points="21 3 11 10 1 3"/>
        </g>
    </g>
</svg>