<svg xmlns="http://www.w3.org/2000/svg" viewBox="0 0 8 14">
    <defs>
        <style>.cls-1{fill:none;stroke:#000;stroke-linecap:round;stroke-linejoin:round;stroke-width:2px;}</style>
    </defs>
    <title>arrow rigth</title>
    <g id="Layer_2" data-name="Layer 2">
        <g id="Layer_1-2" data-name="Layer 1">
            <polyline class="cls-1" points="1 13 7 7 1 1"/>
        </g>
    </g>
</svg>